sunny,cool,high,weak,no
sunny,hot,high,strong,no
overcast,hot,high,weak,yes
rain,mild,normal,weak,yes
rain,cool,normal,weak,yes
rain,cool,high,strong,no
overcast,cool,normal,strong,yes
sunny,mild,high,weak,no
sunny,cool,normal,weak,yes
rain,mild,normal,weak,yes
sunny,mild,normal,strong,no
overcast,mild,high,strong,yes
overcast,hot,normal,weak,no
rain,mild,high,strong,yes
